…
``` r
library(tidymodels)

set.seed(123)
penguin_split <- initial_split(penguins_df, strata = sex)
penguin_train <- training(penguin_split)
penguin_test <- testing(penguin_split) #use to test perfonmance for the model

set.seed(123)
penguin_boot<- bootstraps(penguin_train) #25 different bootstraps of n=250
penguin_boot
```

    ## # Bootstrap sampling 
    ## # A tibble: 25 x 2
    ##    splits           id         
    ##    <list>           <chr>      
    ##  1 <split [250/93]> Bootstrap01
    ##  2 <split [250/92]> Bootstrap02
    ##  3 <split [250/90]> Bootstrap03
    ##  4 <split [250/92]> Bootstrap04
    ##  5 <split [250/86]> Bootstrap05
    ##  6 <split [250/88]> Bootstrap06
    ##  7 <split [250/96]> Bootstrap07
    ##  8 <split [250/89]> Bootstrap08
    ##  9 <split [250/96]> Bootstrap09
    ## 10 <split [250/90]> Bootstrap10
    ## # ... with 15 more rows
…
``` r
glm_rs <- penguin_wf %>%
  add_model(glm_spec) %>%
  fit_resamples(
    resamples = penguin_boot,
    control = control_resamples(save_pred = TRUE)
  )

glm_rs
```

    ## # Resampling results
    ## # Bootstrap sampling 
    ## # A tibble: 25 x 5
    ##    splits           id          .metrics .notes           .predictions
    ##    <list>           <chr>       <list>   <list>           <list>      
    ##  1 <split [250/93]> Bootstrap01 <NULL>   <tibble [1 x 1]> <NULL>      
    ##  2 <split [250/92]> Bootstrap02 <NULL>   <tibble [1 x 1]> <NULL>      
    ##  3 <split [250/90]> Bootstrap03 <NULL>   <tibble [1 x 1]> <NULL>      
    ##  4 <split [250/92]> Bootstrap04 <NULL>   <tibble [1 x 1]> <NULL>      
    ##  5 <split [250/86]> Bootstrap05 <NULL>   <tibble [1 x 1]> <NULL>      
    ##  6 <split [250/88]> Bootstrap06 <NULL>   <tibble [1 x 1]> <NULL>      
    ##  7 <split [250/96]> Bootstrap07 <NULL>   <tibble [1 x 1]> <NULL>      
    ##  8 <split [250/89]> Bootstrap08 <NULL>   <tibble [1 x 1]> <NULL>      
    ##  9 <split [250/96]> Bootstrap09 <NULL>   <tibble [1 x 1]> <NULL>      
    ## 10 <split [250/90]> Bootstrap10 <NULL>   <tibble [1 x 1]> <NULL>      
    ## # ... with 15 more rows
